^C:\Users\carmensolerchorro\Documents\Platilla_3Projects\Platilla_3Projects\GameClient\GameClient.vcxproj
C:\Users\carmensolerchorro\Documents\Platilla_3Projects\Platilla_3Projects\x64\Release\GameClient.ipdb
C:\Users\carmensolerchorro\Documents\Platilla_3Projects\Platilla_3Projects\x64\Release\GameClient.iobj
