^C:\USERS\CARMENSOLERCHORRO\DOCUMENTS\PLATILLA_3PROJECTS\PLATILLA_3PROJECTS\GAMECLIENT\X64\RELEASE\SOURCE.OBJ
C:\USERS\CARMENSOLERCHORRO\DOCUMENTS\PLATILLA_3PROJECTS\PLATILLA_3PROJECTS\X64\RELEASE\GAMECLIENT.EXE
C:\USERS\CARMENSOLERCHORRO\DOCUMENTS\PLATILLA_3PROJECTS\PLATILLA_3PROJECTS\X64\RELEASE\GAMECLIENT.PDB
